{"failedCount":0,"prefixedPath":"classpath:Tests\/get.feature","packageQualifiedName":"Tests.get","loopIndex":-1,"relativePath":"Tests\/get.feature","scenarioResults":[{"sectionIndex":0,"stepResults":[{"result":{"nanos":970400,"startTime":1708123067410,"endTime":1708123067411,"millis":0.9704,"status":"passed"},"step":{"background":true,"line":4,"prefix":"*","index":0,"text":"url 'https:\/\/reqres.in\/api'"}},{"result":{"nanos":727200,"startTime":1708123067411,"endTime":1708123067412,"millis":0.7272,"status":"passed"},"step":{"background":true,"line":5,"prefix":"*","index":1,"text":"header Accept = 'application\/json'"}},{"result":{"nanos":528800,"startTime":1708123067411,"endTime":1708123067412,"millis":0.5288,"status":"passed"},"step":{"line":8,"prefix":"Given","index":0,"text":"url 'https:\/\/reqres.in\/api\/users?page=2'"}},{"result":{"nanos":120000000,"startTime":1708123067413,"endTime":1708123067533,"millis":120.0,"status":"passed"},"step":{"line":9,"prefix":"When","index":1,"text":"method GET"},"stepLog":"15:37:47.415 request:\n1 > GET https:\/\/reqres.in\/api\/users?page=2\n1 > Accept: application\/json\n1 > Host: reqres.in\n1 > Connection: Keep-Alive\n1 > User-Agent: Apache-HttpClient\/4.5.14 (Java\/21.0.1)\n1 > Accept-Encoding: gzip,deflate\n\n\n15:37:47.525 response time in milliseconds: 107\n1 < 200\n1 < Date: Fri, 16 Feb 2024 22:37:47 GMT\n1 < Content-Type: application\/json; charset=utf-8\n1 < Transfer-Encoding: chunked\n1 < Connection: keep-alive\n1 < Report-To: {\"group\":\"heroku-nel\",\"max_age\":3600,\"endpoints\":[{\"url\":\"https:\/\/nel.heroku.com\/reports?ts=1708018926&sid=c4c9725f-1ab0-44d8-820f-430df2718e11&s=xPWFPEBcBKXZbiZk0rM4LZaRsVTdlqZcMeFs3F4duPA%3D\"}]}\n1 < Reporting-Endpoints: heroku-nel=https:\/\/nel.heroku.com\/reports?ts=1708018926&sid=c4c9725f-1ab0-44d8-820f-430df2718e11&s=xPWFPEBcBKXZbiZk0rM4LZaRsVTdlqZcMeFs3F4duPA%3D\n1 < Nel: {\"report_to\":\"heroku-nel\",\"max_age\":3600,\"success_fraction\":0.005,\"failure_fraction\":0.05,\"response_headers\":[\"Via\"]}\n1 < X-Powered-By: Express\n1 < Access-Control-Allow-Origin: *\n1 < Etag: W\/\"406-ut0vzoCuidvyMf8arZpMpJ6ZRDw\"\n1 < Via: 1.1 vegur\n1 < Cache-Control: max-age=14400\n1 < CF-Cache-Status: HIT\n1 < Age: 582\n1 < Vary: Accept-Encoding\n1 < Server: cloudflare\n1 < CF-RAY: 856946f2bb2251e2-DEN\n{\"page\":2,\"per_page\":6,\"total\":12,\"total_pages\":2,\"data\":[{\"id\":7,\"email\":\"michael.lawson@reqres.in\",\"first_name\":\"Michael\",\"last_name\":\"Lawson\",\"avatar\":\"https:\/\/reqres.in\/img\/faces\/7-image.jpg\"},{\"id\":8,\"email\":\"lindsay.ferguson@reqres.in\",\"first_name\":\"Lindsay\",\"last_name\":\"Ferguson\",\"avatar\":\"https:\/\/reqres.in\/img\/faces\/8-image.jpg\"},{\"id\":9,\"email\":\"tobias.funke@reqres.in\",\"first_name\":\"Tobias\",\"last_name\":\"Funke\",\"avatar\":\"https:\/\/reqres.in\/img\/faces\/9-image.jpg\"},{\"id\":10,\"email\":\"byron.fields@reqres.in\",\"first_name\":\"Byron\",\"last_name\":\"Fields\",\"avatar\":\"https:\/\/reqres.in\/img\/faces\/10-image.jpg\"},{\"id\":11,\"email\":\"george.edwards@reqres.in\",\"first_name\":\"George\",\"last_name\":\"Edwards\",\"avatar\":\"https:\/\/reqres.in\/img\/faces\/11-image.jpg\"},{\"id\":12,\"email\":\"rachel.howell@reqres.in\",\"first_name\":\"Rachel\",\"last_name\":\"Howell\",\"avatar\":\"https:\/\/reqres.in\/img\/faces\/12-image.jpg\"}],\"support\":{\"url\":\"https:\/\/reqres.in\/#support-heading\",\"text\":\"To keep ReqRes free, contributions towards server costs are appreciated!\"}}\n\n"},{"result":{"nanos":23800,"startTime":1708123067533,"endTime":1708123067533,"millis":0.0238,"status":"passed"},"step":{"line":10,"prefix":"Then","index":2,"text":"status 200"}},{"result":{"nanos":2662500,"startTime":1708123067534,"endTime":1708123067537,"millis":2.6625,"status":"passed"},"step":{"line":11,"prefix":"And","index":3,"text":"print response"},"stepLog":"15:37:47.536 [print] {\n  \"page\": 2,\n  \"per_page\": 6,\n  \"total\": 12,\n  \"total_pages\": 2,\n  \"data\": [\n    {\n      \"id\": 7,\n      \"email\": \"michael.lawson@reqres.in\",\n      \"first_name\": \"Michael\",\n      \"last_name\": \"Lawson\",\n      \"avatar\": \"https:\/\/reqres.in\/img\/faces\/7-image.jpg\"\n    },\n    {\n      \"id\": 8,\n      \"email\": \"lindsay.ferguson@reqres.in\",\n      \"first_name\": \"Lindsay\",\n      \"last_name\": \"Ferguson\",\n      \"avatar\": \"https:\/\/reqres.in\/img\/faces\/8-image.jpg\"\n    },\n    {\n      \"id\": 9,\n      \"email\": \"tobias.funke@reqres.in\",\n      \"first_name\": \"Tobias\",\n      \"last_name\": \"Funke\",\n      \"avatar\": \"https:\/\/reqres.in\/img\/faces\/9-image.jpg\"\n    },\n    {\n      \"id\": 10,\n      \"email\": \"byron.fields@reqres.in\",\n      \"first_name\": \"Byron\",\n      \"last_name\": \"Fields\",\n      \"avatar\": \"https:\/\/reqres.in\/img\/faces\/10-image.jpg\"\n    },\n    {\n      \"id\": 11,\n      \"email\": \"george.edwards@reqres.in\",\n      \"first_name\": \"George\",\n      \"last_name\": \"Edwards\",\n      \"avatar\": \"https:\/\/reqres.in\/img\/faces\/11-image.jpg\"\n    },\n    {\n      \"id\": 12,\n      \"email\": \"rachel.howell@reqres.in\",\n      \"first_name\": \"Rachel\",\n      \"last_name\": \"Howell\",\n      \"avatar\": \"https:\/\/reqres.in\/img\/faces\/12-image.jpg\"\n    }\n  ],\n  \"support\": {\n    \"url\": \"https:\/\/reqres.in\/#support-heading\",\n    \"text\": \"To keep ReqRes free, contributions towards server costs are appreciated!\"\n  }\n}\n \n"},{"result":{"nanos":2187600,"startTime":1708123067536,"endTime":1708123067538,"millis":2.1876,"status":"passed"},"step":{"line":12,"prefix":"And","index":4,"text":"print responseTime"},"stepLog":"15:37:47.538 [print] 107 \n"},{"result":{"nanos":2315100,"startTime":1708123067538,"endTime":1708123067540,"millis":2.3151,"status":"passed"},"step":{"line":13,"prefix":"And","index":5,"text":"print responseHeaders"},"stepLog":"15:37:47.540 [print] {\n  \"Date\": [\n    \"Fri, 16 Feb 2024 22:37:47 GMT\"\n  ],\n  \"Content-Type\": [\n    \"application\/json; charset=utf-8\"\n  ],\n  \"Transfer-Encoding\": [\n    \"chunked\"\n  ],\n  \"Connection\": [\n    \"keep-alive\"\n  ],\n  \"Report-To\": [\n    \"{\\\"group\\\":\\\"heroku-nel\\\",\\\"max_age\\\":3600,\\\"endpoints\\\":[{\\\"url\\\":\\\"https:\/\/nel.heroku.com\/reports?ts=1708018926&sid=c4c9725f-1ab0-44d8-820f-430df2718e11&s=xPWFPEBcBKXZbiZk0rM4LZaRsVTdlqZcMeFs3F4duPA%3D\\\"}]}\"\n  ],\n  \"Reporting-Endpoints\": [\n    \"heroku-nel=https:\/\/nel.heroku.com\/reports?ts=1708018926&sid=c4c9725f-1ab0-44d8-820f-430df2718e11&s=xPWFPEBcBKXZbiZk0rM4LZaRsVTdlqZcMeFs3F4duPA%3D\"\n  ],\n  \"Nel\": [\n    \"{\\\"report_to\\\":\\\"heroku-nel\\\",\\\"max_age\\\":3600,\\\"success_fraction\\\":0.005,\\\"failure_fraction\\\":0.05,\\\"response_headers\\\":[\\\"Via\\\"]}\"\n  ],\n  \"X-Powered-By\": [\n    \"Express\"\n  ],\n  \"Access-Control-Allow-Origin\": [\n    \"*\"\n  ],\n  \"Etag\": [\n    \"W\/\\\"406-ut0vzoCuidvyMf8arZpMpJ6ZRDw\\\"\"\n  ],\n  \"Via\": [\n    \"1.1 vegur\"\n  ],\n  \"Cache-Control\": [\n    \"max-age=14400\"\n  ],\n  \"CF-Cache-Status\": [\n    \"HIT\"\n  ],\n  \"Age\": [\n    \"582\"\n  ],\n  \"Vary\": [\n    \"Accept-Encoding\"\n  ],\n  \"Server\": [\n    \"cloudflare\"\n  ],\n  \"CF-RAY\": [\n    \"856946f2bb2251e2-DEN\"\n  ],\n  \"Set-Cookie\": [\n  ]\n}\n \n"},{"result":{"nanos":1718700,"startTime":1708123067541,"endTime":1708123067543,"millis":1.7187,"status":"passed"},"step":{"line":14,"prefix":"And","index":6,"text":"print responseCookies"},"stepLog":"15:37:47.542 [print] {\n}\n \n"}],"executorName":"main","line":7,"name":"Verify Get Request","description":"","durationMillis":131.1341,"startTime":1708123067409,"failed":false,"refId":"[1:7]","endTime":1708123067542,"exampleIndex":-1},{"sectionIndex":1,"stepResults":[{"result":{"nanos":605600,"startTime":1708123067557,"endTime":1708123067558,"millis":0.6056,"status":"passed"},"step":{"background":true,"line":4,"prefix":"*","index":0,"text":"url 'https:\/\/reqres.in\/api'"}},{"result":{"nanos":432400,"startTime":1708123067558,"endTime":1708123067558,"millis":0.4324,"status":"passed"},"step":{"background":true,"line":5,"prefix":"*","index":1,"text":"header Accept = 'application\/json'"}},{"result":{"nanos":961900,"startTime":1708123067559,"endTime":1708123067560,"millis":0.9619,"status":"passed"},"step":{"line":17,"prefix":"Given","index":0,"text":"path '\/users?page=2'"}},{"result":{"nanos":108305800,"startTime":1708123067560,"endTime":1708123067668,"millis":108.3058,"status":"passed"},"step":{"line":18,"prefix":"When","index":1,"text":"method GET"},"stepLog":"15:37:47.564 request:\n1 > GET https:\/\/reqres.in\/api\/users%3Fpage=2\n1 > Accept: application\/json\n1 > Host: reqres.in\n1 > Connection: Keep-Alive\n1 > User-Agent: Apache-HttpClient\/4.5.14 (Java\/21.0.1)\n1 > Accept-Encoding: gzip,deflate\n\n\n15:37:47.666 response time in milliseconds: 100\n1 < 200\n1 < Date: Fri, 16 Feb 2024 22:37:47 GMT\n1 < Content-Type: application\/json; charset=utf-8\n1 < Transfer-Encoding: chunked\n1 < Connection: keep-alive\n1 < Report-To: {\"group\":\"heroku-nel\",\"max_age\":3600,\"endpoints\":[{\"url\":\"https:\/\/nel.heroku.com\/reports?ts=1708033594&sid=c4c9725f-1ab0-44d8-820f-430df2718e11&s=JbT5k2lmx8%2FIGjX0wENJFeLFIlMMMVy0askVx4nKd64%3D\"}]}\n1 < Reporting-Endpoints: heroku-nel=https:\/\/nel.heroku.com\/reports?ts=1708033594&sid=c4c9725f-1ab0-44d8-820f-430df2718e11&s=JbT5k2lmx8%2FIGjX0wENJFeLFIlMMMVy0askVx4nKd64%3D\n1 < Nel: {\"report_to\":\"heroku-nel\",\"max_age\":3600,\"success_fraction\":0.005,\"failure_fraction\":0.05,\"response_headers\":[\"Via\"]}\n1 < X-Powered-By: Express\n1 < Access-Control-Allow-Origin: *\n1 < Etag: W\/\"2c1-N6Rqerxquq2kgQhL51EiSg4x0R8\"\n1 < Via: 1.1 vegur\n1 < Cache-Control: max-age=14400\n1 < CF-Cache-Status: HIT\n1 < Age: 581\n1 < Vary: Accept-Encoding\n1 < Server: cloudflare\n1 < CF-RAY: 856946f398487b36-DEN\n{\"page\":1,\"per_page\":6,\"total\":12,\"total_pages\":2,\"data\":[{\"id\":1,\"name\":\"cerulean\",\"year\":2000,\"color\":\"#98B2D1\",\"pantone_value\":\"15-4020\"},{\"id\":2,\"name\":\"fuchsia rose\",\"year\":2001,\"color\":\"#C74375\",\"pantone_value\":\"17-2031\"},{\"id\":3,\"name\":\"true red\",\"year\":2002,\"color\":\"#BF1932\",\"pantone_value\":\"19-1664\"},{\"id\":4,\"name\":\"aqua sky\",\"year\":2003,\"color\":\"#7BC4C4\",\"pantone_value\":\"14-4811\"},{\"id\":5,\"name\":\"tigerlily\",\"year\":2004,\"color\":\"#E2583E\",\"pantone_value\":\"17-1456\"},{\"id\":6,\"name\":\"blue turquoise\",\"year\":2005,\"color\":\"#53B0AE\",\"pantone_value\":\"15-5217\"}],\"support\":{\"url\":\"https:\/\/reqres.in\/#support-heading\",\"text\":\"To keep ReqRes free, contributions towards server costs are appreciated!\"}}\n\n"},{"result":{"nanos":25400,"startTime":1708123067669,"endTime":1708123067669,"millis":0.0254,"status":"passed"},"step":{"line":19,"prefix":"Then","index":2,"text":"status 200"}},{"result":{"nanos":1774500,"startTime":1708123067669,"endTime":1708123067671,"millis":1.7745,"status":"passed"},"step":{"line":20,"prefix":"And","index":3,"text":"print response"},"stepLog":"15:37:47.670 [print] {\n  \"page\": 1,\n  \"per_page\": 6,\n  \"total\": 12,\n  \"total_pages\": 2,\n  \"data\": [\n    {\n      \"id\": 1,\n      \"name\": \"cerulean\",\n      \"year\": 2000,\n      \"color\": \"#98B2D1\",\n      \"pantone_value\": \"15-4020\"\n    },\n    {\n      \"id\": 2,\n      \"name\": \"fuchsia rose\",\n      \"year\": 2001,\n      \"color\": \"#C74375\",\n      \"pantone_value\": \"17-2031\"\n    },\n    {\n      \"id\": 3,\n      \"name\": \"true red\",\n      \"year\": 2002,\n      \"color\": \"#BF1932\",\n      \"pantone_value\": \"19-1664\"\n    },\n    {\n      \"id\": 4,\n      \"name\": \"aqua sky\",\n      \"year\": 2003,\n      \"color\": \"#7BC4C4\",\n      \"pantone_value\": \"14-4811\"\n    },\n    {\n      \"id\": 5,\n      \"name\": \"tigerlily\",\n      \"year\": 2004,\n      \"color\": \"#E2583E\",\n      \"pantone_value\": \"17-1456\"\n    },\n    {\n      \"id\": 6,\n      \"name\": \"blue turquoise\",\n      \"year\": 2005,\n      \"color\": \"#53B0AE\",\n      \"pantone_value\": \"15-5217\"\n    }\n  ],\n  \"support\": {\n    \"url\": \"https:\/\/reqres.in\/#support-heading\",\n    \"text\": \"To keep ReqRes free, contributions towards server costs are appreciated!\"\n  }\n}\n \n"}],"executorName":"main","line":16,"name":"Verify second Get Request","description":"","durationMillis":112.1056,"startTime":1708123067557,"failed":false,"refId":"[2:16]","endTime":1708123067671,"exampleIndex":-1},{"sectionIndex":2,"stepResults":[{"result":{"nanos":549300,"startTime":1708123067684,"endTime":1708123067685,"millis":0.5493,"status":"passed"},"step":{"background":true,"line":4,"prefix":"*","index":0,"text":"url 'https:\/\/reqres.in\/api'"}},{"result":{"nanos":454400,"startTime":1708123067685,"endTime":1708123067685,"millis":0.4544,"status":"passed"},"step":{"background":true,"line":5,"prefix":"*","index":1,"text":"header Accept = 'application\/json'"}},{"result":{"nanos":1244300,"startTime":1708123067685,"endTime":1708123067686,"millis":1.2443,"status":"passed"},"step":{"line":23,"prefix":"Given","index":0,"text":"path '\/users?'"}},{"result":{"nanos":3950300,"startTime":1708123067687,"endTime":1708123067691,"millis":3.9503,"status":"passed"},"step":{"line":24,"prefix":"And","index":1,"text":"param page = 2"}},{"result":{"nanos":109990800,"startTime":1708123067691,"endTime":1708123067801,"millis":109.9908,"status":"passed"},"step":{"line":25,"prefix":"When","index":2,"text":"method get"},"stepLog":"15:37:47.696 request:\n1 > GET https:\/\/reqres.in\/api\/users%3F?page=2\n1 > Accept: application\/json\n1 > Host: reqres.in\n1 > Connection: Keep-Alive\n1 > User-Agent: Apache-HttpClient\/4.5.14 (Java\/21.0.1)\n1 > Accept-Encoding: gzip,deflate\n\n\n15:37:47.798 response time in milliseconds: 100\n1 < 200\n1 < Date: Fri, 16 Feb 2024 22:37:47 GMT\n1 < Content-Type: application\/json; charset=utf-8\n1 < Transfer-Encoding: chunked\n1 < Connection: keep-alive\n1 < Report-To: {\"group\":\"heroku-nel\",\"max_age\":3600,\"endpoints\":[{\"url\":\"https:\/\/nel.heroku.com\/reports?ts=1708033918&sid=c4c9725f-1ab0-44d8-820f-430df2718e11&s=itscEA2qhEivBsZEACzg73lXH066NH701MhVqMoH7sY%3D\"}]}\n1 < Reporting-Endpoints: heroku-nel=https:\/\/nel.heroku.com\/reports?ts=1708033918&sid=c4c9725f-1ab0-44d8-820f-430df2718e11&s=itscEA2qhEivBsZEACzg73lXH066NH701MhVqMoH7sY%3D\n1 < Nel: {\"report_to\":\"heroku-nel\",\"max_age\":3600,\"success_fraction\":0.005,\"failure_fraction\":0.05,\"response_headers\":[\"Via\"]}\n1 < X-Powered-By: Express\n1 < Access-Control-Allow-Origin: *\n1 < Etag: W\/\"2c3-xEr0SjJUDYJR0qVFNJByQ5ZcdPc\"\n1 < Via: 1.1 vegur\n1 < Cache-Control: max-age=14400\n1 < CF-Cache-Status: HIT\n1 < Age: 581\n1 < Vary: Accept-Encoding\n1 < Server: cloudflare\n1 < CF-RAY: 856946f46d5b538a-DEN\n{\"page\":2,\"per_page\":6,\"total\":12,\"total_pages\":2,\"data\":[{\"id\":7,\"name\":\"sand dollar\",\"year\":2006,\"color\":\"#DECDBE\",\"pantone_value\":\"13-1106\"},{\"id\":8,\"name\":\"chili pepper\",\"year\":2007,\"color\":\"#9B1B30\",\"pantone_value\":\"19-1557\"},{\"id\":9,\"name\":\"blue iris\",\"year\":2008,\"color\":\"#5A5B9F\",\"pantone_value\":\"18-3943\"},{\"id\":10,\"name\":\"mimosa\",\"year\":2009,\"color\":\"#F0C05A\",\"pantone_value\":\"14-0848\"},{\"id\":11,\"name\":\"turquoise\",\"year\":2010,\"color\":\"#45B5AA\",\"pantone_value\":\"15-5519\"},{\"id\":12,\"name\":\"honeysuckle\",\"year\":2011,\"color\":\"#D94F70\",\"pantone_value\":\"18-2120\"}],\"support\":{\"url\":\"https:\/\/reqres.in\/#support-heading\",\"text\":\"To keep ReqRes free, contributions towards server costs are appreciated!\"}}\n\n"},{"result":{"nanos":27100,"startTime":1708123067801,"endTime":1708123067801,"millis":0.0271,"status":"passed"},"step":{"line":26,"prefix":"Then","index":3,"text":"status 200"}},{"result":{"nanos":1665900,"startTime":1708123067802,"endTime":1708123067804,"millis":1.6659,"status":"passed"},"step":{"line":27,"prefix":"And","index":4,"text":"print response"},"stepLog":"15:37:47.803 [print] {\n  \"page\": 2,\n  \"per_page\": 6,\n  \"total\": 12,\n  \"total_pages\": 2,\n  \"data\": [\n    {\n      \"id\": 7,\n      \"name\": \"sand dollar\",\n      \"year\": 2006,\n      \"color\": \"#DECDBE\",\n      \"pantone_value\": \"13-1106\"\n    },\n    {\n      \"id\": 8,\n      \"name\": \"chili pepper\",\n      \"year\": 2007,\n      \"color\": \"#9B1B30\",\n      \"pantone_value\": \"19-1557\"\n    },\n    {\n      \"id\": 9,\n      \"name\": \"blue iris\",\n      \"year\": 2008,\n      \"color\": \"#5A5B9F\",\n      \"pantone_value\": \"18-3943\"\n    },\n    {\n      \"id\": 10,\n      \"name\": \"mimosa\",\n      \"year\": 2009,\n      \"color\": \"#F0C05A\",\n      \"pantone_value\": \"14-0848\"\n    },\n    {\n      \"id\": 11,\n      \"name\": \"turquoise\",\n      \"year\": 2010,\n      \"color\": \"#45B5AA\",\n      \"pantone_value\": \"15-5519\"\n    },\n    {\n      \"id\": 12,\n      \"name\": \"honeysuckle\",\n      \"year\": 2011,\n      \"color\": \"#D94F70\",\n      \"pantone_value\": \"18-2120\"\n    }\n  ],\n  \"support\": {\n    \"url\": \"https:\/\/reqres.in\/#support-heading\",\n    \"text\": \"To keep ReqRes free, contributions towards server costs are appreciated!\"\n  }\n}\n \n"}],"executorName":"main","line":22,"name":"Verify Third Get Request","description":"","durationMillis":117.8821,"startTime":1708123067684,"failed":false,"refId":"[3:22]","endTime":1708123067803,"exampleIndex":-1},{"sectionIndex":3,"stepResults":[{"result":{"nanos":481400,"startTime":1708123067817,"endTime":1708123067817,"millis":0.4814,"status":"passed"},"step":{"background":true,"line":4,"prefix":"*","index":0,"text":"url 'https:\/\/reqres.in\/api'"}},{"result":{"nanos":430300,"startTime":1708123067817,"endTime":1708123067817,"millis":0.4303,"status":"passed"},"step":{"background":true,"line":5,"prefix":"*","index":1,"text":"header Accept = 'application\/json'"}},{"result":{"nanos":192300,"startTime":1708123067818,"endTime":1708123067818,"millis":0.1923,"status":"passed"},"step":{"line":30,"prefix":"Given","index":0,"text":"path '\/users?'"}},{"result":{"nanos":684700,"startTime":1708123067818,"endTime":1708123067819,"millis":0.6847,"status":"passed"},"step":{"line":31,"prefix":"And","index":1,"text":"param page = 2"}},{"result":{"nanos":114748000,"startTime":1708123067819,"endTime":1708123067934,"millis":114.748,"status":"passed"},"step":{"line":32,"prefix":"When","index":2,"text":"method get"},"stepLog":"15:37:47.822 request:\n1 > GET https:\/\/reqres.in\/api\/users%3F?page=2\n1 > Accept: application\/json\n1 > Host: reqres.in\n1 > Connection: Keep-Alive\n1 > User-Agent: Apache-HttpClient\/4.5.14 (Java\/21.0.1)\n1 > Accept-Encoding: gzip,deflate\n\n\n15:37:47.932 response time in milliseconds: 108\n1 < 200\n1 < Date: Fri, 16 Feb 2024 22:37:47 GMT\n1 < Content-Type: application\/json; charset=utf-8\n1 < Transfer-Encoding: chunked\n1 < Connection: keep-alive\n1 < Report-To: {\"group\":\"heroku-nel\",\"max_age\":3600,\"endpoints\":[{\"url\":\"https:\/\/nel.heroku.com\/reports?ts=1708033918&sid=c4c9725f-1ab0-44d8-820f-430df2718e11&s=itscEA2qhEivBsZEACzg73lXH066NH701MhVqMoH7sY%3D\"}]}\n1 < Reporting-Endpoints: heroku-nel=https:\/\/nel.heroku.com\/reports?ts=1708033918&sid=c4c9725f-1ab0-44d8-820f-430df2718e11&s=itscEA2qhEivBsZEACzg73lXH066NH701MhVqMoH7sY%3D\n1 < Nel: {\"report_to\":\"heroku-nel\",\"max_age\":3600,\"success_fraction\":0.005,\"failure_fraction\":0.05,\"response_headers\":[\"Via\"]}\n1 < X-Powered-By: Express\n1 < Access-Control-Allow-Origin: *\n1 < Etag: W\/\"2c3-xEr0SjJUDYJR0qVFNJByQ5ZcdPc\"\n1 < Via: 1.1 vegur\n1 < Cache-Control: max-age=14400\n1 < CF-Cache-Status: HIT\n1 < Age: 581\n1 < Vary: Accept-Encoding\n1 < Server: cloudflare\n1 < CF-RAY: 856946f54a875200-DEN\n{\"page\":2,\"per_page\":6,\"total\":12,\"total_pages\":2,\"data\":[{\"id\":7,\"name\":\"sand dollar\",\"year\":2006,\"color\":\"#DECDBE\",\"pantone_value\":\"13-1106\"},{\"id\":8,\"name\":\"chili pepper\",\"year\":2007,\"color\":\"#9B1B30\",\"pantone_value\":\"19-1557\"},{\"id\":9,\"name\":\"blue iris\",\"year\":2008,\"color\":\"#5A5B9F\",\"pantone_value\":\"18-3943\"},{\"id\":10,\"name\":\"mimosa\",\"year\":2009,\"color\":\"#F0C05A\",\"pantone_value\":\"14-0848\"},{\"id\":11,\"name\":\"turquoise\",\"year\":2010,\"color\":\"#45B5AA\",\"pantone_value\":\"15-5519\"},{\"id\":12,\"name\":\"honeysuckle\",\"year\":2011,\"color\":\"#D94F70\",\"pantone_value\":\"18-2120\"}],\"support\":{\"url\":\"https:\/\/reqres.in\/#support-heading\",\"text\":\"To keep ReqRes free, contributions towards server costs are appreciated!\"}}\n\n"},{"result":{"nanos":20400,"startTime":1708123067934,"endTime":1708123067934,"millis":0.0204,"status":"passed"},"step":{"line":33,"prefix":"Then","index":3,"text":"status 200"}},{"result":{"nanos":1668500,"startTime":1708123067934,"endTime":1708123067936,"millis":1.6685,"status":"passed"},"step":{"line":34,"prefix":"And","index":4,"text":"print response"},"stepLog":"15:37:47.936 [print] {\n  \"page\": 2,\n  \"per_page\": 6,\n  \"total\": 12,\n  \"total_pages\": 2,\n  \"data\": [\n    {\n      \"id\": 7,\n      \"name\": \"sand dollar\",\n      \"year\": 2006,\n      \"color\": \"#DECDBE\",\n      \"pantone_value\": \"13-1106\"\n    },\n    {\n      \"id\": 8,\n      \"name\": \"chili pepper\",\n      \"year\": 2007,\n      \"color\": \"#9B1B30\",\n      \"pantone_value\": \"19-1557\"\n    },\n    {\n      \"id\": 9,\n      \"name\": \"blue iris\",\n      \"year\": 2008,\n      \"color\": \"#5A5B9F\",\n      \"pantone_value\": \"18-3943\"\n    },\n    {\n      \"id\": 10,\n      \"name\": \"mimosa\",\n      \"year\": 2009,\n      \"color\": \"#F0C05A\",\n      \"pantone_value\": \"14-0848\"\n    },\n    {\n      \"id\": 11,\n      \"name\": \"turquoise\",\n      \"year\": 2010,\n      \"color\": \"#45B5AA\",\n      \"pantone_value\": \"15-5519\"\n    },\n    {\n      \"id\": 12,\n      \"name\": \"honeysuckle\",\n      \"year\": 2011,\n      \"color\": \"#D94F70\",\n      \"pantone_value\": \"18-2120\"\n    }\n  ],\n  \"support\": {\n    \"url\": \"https:\/\/reqres.in\/#support-heading\",\n    \"text\": \"To keep ReqRes free, contributions towards server costs are appreciated!\"\n  }\n}\n \n"},{"result":{"nanos":8632200,"startTime":1708123067936,"endTime":1708123067945,"millis":8.6322,"status":"passed"},"step":{"line":35,"prefix":"And","index":5,"text":"assert response.data.length == 6"}},{"result":{"nanos":30751600,"startTime":1708123067945,"endTime":1708123067976,"millis":30.7516,"status":"passed"},"step":{"line":36,"prefix":"And","index":6,"text":"match response.data[3].name == 'mimosa'"}},{"result":{"nanos":1308800,"startTime":1708123067975,"endTime":1708123067976,"millis":1.3088,"status":"passed"},"step":{"line":37,"prefix":"And","index":7,"text":"match $.data[2].color == '#5A5B9F'"}},{"result":{"nanos":772700,"startTime":1708123067977,"endTime":1708123067978,"millis":0.7727,"status":"passed"},"step":{"line":38,"prefix":"And","index":8,"text":"assert response.total == 12"}},{"result":{"nanos":605900,"startTime":1708123067978,"endTime":1708123067979,"millis":0.6059,"status":"passed"},"step":{"line":39,"prefix":"And","index":9,"text":"match $.total_pages == 2"}}],"executorName":"main","line":29,"name":"Verify Fourth Get Request","description":"","durationMillis":160.2968,"startTime":1708123067816,"failed":false,"refId":"[4:29]","endTime":1708123067979,"exampleIndex":-1}],"callDepth":0,"name":"Get request test","description":"","resultDate":"2024-02-16 03:37:47 PM","durationMillis":521.4186,"passedCount":4}